\relax 
\@writefile{toc}{\contentsline {chapter}{\numberline {4}The Basic Widgets}{73}}
\@writefile{lof}{\addvspace {10\p@ }}
\@writefile{lot}{\addvspace {10\p@ }}
\newlabel{chap3}{{4}{73}}
\@writefile{toc}{\contentsline {section}{\numberline {4.1}Aims}{73}}
\@writefile{toc}{\contentsline {section}{\numberline {4.2}Buttons, Labels, Boxes, Dialogs, Arrow Widgets.}{73}}
\@writefile{toc}{\contentsline {subsection}{\numberline {4.2.1}Buttons}{73}}
\@writefile{toc}{\contentsline {subsection}{\numberline {4.2.2}Buttons}{74}}
\@writefile{toc}{\contentsline {subsubsection}{Stock Items & Adding your own stock icons.}{74}}
\@writefile{toc}{\contentsline {subsubsection}{Mnemonics}{80}}
\@writefile{toc}{\contentsline {subsection}{\numberline {4.2.3}Label Widget}{82}}
\@writefile{toc}{\contentsline {subsection}{\numberline {4.2.4}Box widget}{83}}
\@writefile{toc}{\contentsline {subsection}{\numberline {4.2.5}Dialog Boxes.}{88}}
\@setckpt{chap3/basic_widgets}{
\setcounter{page}{118}
\setcounter{equation}{0}
\setcounter{enumi}{2}
\setcounter{enumii}{0}
\setcounter{enumiii}{0}
\setcounter{enumiv}{0}
\setcounter{footnote}{0}
\setcounter{mpfootnote}{0}
\setcounter{part}{0}
\setcounter{chapter}{4}
\setcounter{section}{2}
\setcounter{subsection}{5}
\setcounter{subsubsection}{0}
\setcounter{paragraph}{0}
\setcounter{subparagraph}{0}
\setcounter{figure}{0}
\setcounter{table}{0}
}
