\relax 
\newlabel{chap2-prog-hello}{{2.7}{43}}
\@writefile{lof}{\contentsline {figure}{\numberline {2.1}{\ignorespaces Your first Hello World program}}{44}}
\newlabel{fig-chap2-hello1}{{2.1}{44}}
\@writefile{toc}{\contentsline {section}{\numberline {2.8}Packing, Signals, Events \& Callbacks}{47}}
\newlabel{chap2-prog-bhello}{{2.8}{48}}
\@writefile{lof}{\contentsline {figure}{\numberline {2.2}{\ignorespaces Your improved Hello World program}}{50}}
\newlabel{fig-chap2-hellob}{{2.2}{50}}
\newlabel{chap2-login-desc}{{2.8}{52}}
\newlabel{chap2-stmt-callback}{{2.8}{53}}
\@writefile{toc}{\contentsline {section}{\numberline {2.9}A login window example, with callbacks and User Interaction}{54}}
\newlabel{fig-chap2-login}{{2.9}{54}}
\newlabel{chap2-prog-login}{{2.9}{54}}
\@writefile{lof}{\contentsline {figure}{\numberline {2.3}{\ignorespaces The Login window.}}{55}}
\newlabel{fig-chap2-login-success}{{2.3}{55}}
\@writefile{lof}{\contentsline {figure}{\numberline {2.4}{\ignorespaces Success dialog.}}{55}}
\@writefile{lof}{\contentsline {figure}{\numberline {2.5}{\ignorespaces Failed dialog.}}{55}}
\@writefile{toc}{\contentsline {section}{\numberline {2.10}Explaining message passing, and the main loop}{63}}
\@writefile{toc}{\contentsline {section}{\numberline {2.11}Explaining events and signals in GTK}{65}}
\@setckpt{chap2/signal_design_internals}{
\setcounter{page}{70}
\setcounter{equation}{0}
\setcounter{enumi}{4}
\setcounter{enumii}{0}
\setcounter{enumiii}{0}
\setcounter{enumiv}{0}
\setcounter{footnote}{0}
\setcounter{mpfootnote}{0}
\setcounter{part}{0}
\setcounter{chapter}{2}
\setcounter{section}{11}
\setcounter{subsection}{0}
\setcounter{subsubsection}{0}
\setcounter{paragraph}{0}
\setcounter{subparagraph}{0}
\setcounter{figure}{5}
\setcounter{table}{0}
}
